instrument,buysell,datum,čas,količina,cena,tip instrumenta,valuta instrumenta,multiplikator
DXJ,B,2018-07-20,00:00:00,300.00,34.34,02,USD,1.00
GREp,B,2015-02-19,03:59:31,8200.00,1.22,00,EUR,1.00
LIT,B,2018-01-03,09:30:00,500.00,22.96,00,USD,1.00
NXPIn,B,2019-12-19,12:24:28,1.00,101.65,02,USD,1.00
RSX,B,2019-12-19,11:52:14,1.00,20.99,02,USD,1.00
TELo,B,2018-07-20,00:00:00,500.00,0.18,02,NOK,1.00
TUR,B,2015-02-11,15:20:23,202.00,26.70,02,USD,1.00
TUR,B,2015-02-12,13:33:31,100.00,27.79,02,USD,1.00
USO,B,2018-07-20,00:00:00,3076.00,8.90,02,USD,1.00
XLI,B,2019-04-29,11:10:31,100.00,62.62,02,USD,1.00
XLV,B,2019-11-15,14:20:02,10.00,79.48,02,USD,1.00
