instrument,buysell,datum,čas,količina,cena,tip instrumenta,valuta instrumenta,multiplikator
VENG,S,2022-12-29,11:51:18,184.00,21.73,00,EUR,1.00
VENG,S,2022-12-29,11:51:18,98.00,21.79,00,EUR,1.00
VENG,S,2022-12-29,11:51:18,526.00,21.73,00,EUR,1.00
VENG,S,2022-12-29,11:51:18,98.00,21.79,00,EUR,1.00
VENG,S,2022-12-29,11:51:26,23.00,21.73,00,EUR,1.00
VENG,S,2022-12-29,11:51:26,23.00,21.73,00,EUR,1.00
VENG,S,2022-12-29,11:51:28,100.00,21.71,00,EUR,1.00
VENG,S,2022-12-29,11:51:28,100.00,21.71,00,EUR,1.00
VENG,S,2022-12-29,11:51:32,29.00,21.70,00,EUR,1.00
VENG,S,2022-12-29,11:51:32,29.00,21.70,00,EUR,1.00
VENG,S,2022-12-29,12:13:02,800.00,21.41,00,EUR,1.00
VENG,S,2022-12-29,12:13:02,800.00,21.41,00,EUR,1.00
VENG,S,2022-12-29,12:13:26,190.00,21.13,00,EUR,1.00
VENG,S,2022-12-29,12:13:26,190.00,21.13,00,EUR,1.00
VENG,S,2022-12-29,12:13:28,100.00,21.13,00,EUR,1.00
VENG,S,2022-12-29,12:13:28,100.00,21.13,00,EUR,1.00
VENG,S,2022-12-29,12:13:39,10.00,21.13,00,EUR,1.00
VENG,S,2022-12-29,12:13:39,10.00,21.13,00,EUR,1.00
VENG,S,2022-12-29,12:15:14,600.00,20.80,00,EUR,1.00
VENG,S,2022-12-29,12:15:14,600.00,20.80,00,EUR,1.00
VENG,S,2022-12-29,12:30:54,200.00,20.45,00,EUR,1.00
VENG,S,2022-12-29,12:30:54,200.00,20.45,00,EUR,1.00
VENG,S,2022-12-29,12:31:12,200.00,20.20,00,EUR,1.00
VENG,S,2022-12-29,12:31:12,200.00,20.20,00,EUR,1.00
VENG,S,2022-12-29,12:32:15,200.00,20.19,00,EUR,1.00
VENG,S,2022-12-29,12:32:15,200.00,20.19,00,EUR,1.00
VENG,S,2022-12-29,13:53:19,800.00,19.69,00,EUR,1.00
VENG,S,2022-12-29,13:53:19,800.00,19.69,00,EUR,1.00
VENG,S,2022-12-29,14:22:31,200.00,19.32,00,EUR,1.00
VENG,S,2022-12-29,14:22:31,200.00,19.32,00,EUR,1.00
VENG,S,2022-12-29,14:23:14,100.00,19.32,00,EUR,1.00
VENG,S,2022-12-29,14:23:14,100.00,19.32,00,EUR,1.00
VENG,S,2022-12-29,15:12:52,100.00,18.85,00,EUR,1.00
VENG,S,2022-12-29,15:12:52,100.00,18.85,00,EUR,1.00
VENG,S,2022-12-29,15:13:05,100.00,18.78,00,EUR,1.00
VENG,S,2022-12-29,15:13:05,100.00,18.78,00,EUR,1.00
VENG,S,2022-12-29,15:13:06,100.00,18.83,00,EUR,1.00
VENG,S,2022-12-29,15:13:06,100.00,18.83,00,EUR,1.00
VENG,S,2022-12-29,15:13:33,100.00,18.50,00,EUR,1.00
VENG,S,2022-12-29,15:13:33,100.00,18.50,00,EUR,1.00
VENG,S,2022-12-29,15:15:04,200.00,18.76,00,EUR,1.00
VENG,S,2022-12-29,15:15:04,200.00,18.76,00,EUR,1.00
VENG,S,2022-12-29,15:48:38,100.00,19.27,00,EUR,1.00
VENG,S,2022-12-29,15:48:38,100.00,19.27,00,EUR,1.00
VENG,S,2022-12-29,15:49:10,100.00,19.30,00,EUR,1.00
VENG,S,2022-12-29,15:49:10,100.00,19.30,00,EUR,1.00
VENG,S,2022-12-29,15:50:35,100.00,19.15,00,EUR,1.00
VENG,S,2022-12-29,15:50:35,100.00,19.15,00,EUR,1.00
VENG,S,2022-12-30,09:29:44,595.00,16.85,00,EUR,1.00
VENG,S,2022-12-30,09:29:44,595.00,16.85,00,EUR,1.00
VENG,S,2022-12-30,09:30:07,100.00,16.54,00,EUR,1.00
VENG,S,2022-12-30,09:30:07,100.00,16.54,00,EUR,1.00
VENG,S,2022-12-30,09:30:16,700.00,16.50,00,EUR,1.00
VENG,S,2022-12-30,09:30:16,700.00,16.50,00,EUR,1.00
VENG,S,2022-12-30,09:30:41,500.00,15.94,00,EUR,1.00
VENG,S,2022-12-30,09:30:41,500.00,15.94,00,EUR,1.00
VENG,S,2022-12-30,09:31:02,100.00,15.98,00,EUR,1.00
VENG,S,2022-12-30,09:31:02,100.00,15.98,00,EUR,1.00
VENG,S,2022-12-30,09:31:17,400.00,15.94,00,EUR,1.00
VENG,S,2022-12-30,09:31:17,400.00,15.94,00,EUR,1.00
VENG,S,2022-12-30,09:32:20,400.00,16.41,00,EUR,1.00
VENG,S,2022-12-30,09:32:20,400.00,16.41,00,EUR,1.00
VENG,S,2022-12-30,09:32:51,100.00,16.33,00,EUR,1.00
VENG,S,2022-12-30,09:32:51,100.00,16.33,00,EUR,1.00
VENG,S,2022-12-30,09:33:29,500.00,15.76,00,EUR,1.00
VENG,S,2022-12-30,09:33:29,500.00,15.76,00,EUR,1.00
VENG,S,2022-12-30,09:35:20,300.00,15.48,00,EUR,1.00
VENG,S,2022-12-30,09:35:20,300.00,15.48,00,EUR,1.00
VENG,S,2022-12-30,09:36:07,300.00,15.01,00,EUR,1.00
VENG,S,2022-12-30,09:36:07,300.00,15.01,00,EUR,1.00
VENG,S,2022-12-30,09:36:28,200.00,15.09,00,EUR,1.00
VENG,S,2022-12-30,09:36:28,200.00,15.09,00,EUR,1.00
VENG,S,2022-12-30,09:39:02,1.00,15.43,00,EUR,1.00
VENG,S,2022-12-30,09:39:02,1.00,15.43,00,EUR,1.00
VENG,S,2022-12-30,09:39:20,1.00,15.40,00,EUR,1.00
VENG,S,2022-12-30,09:39:20,110.00,15.42,00,EUR,1.00
VENG,S,2022-12-30,09:39:20,1.00,15.40,00,EUR,1.00
VENG,S,2022-12-30,09:39:20,110.00,15.42,00,EUR,1.00
VENG,S,2022-12-30,09:39:22,189.00,15.33,00,EUR,1.00
VENG,S,2022-12-30,09:39:22,189.00,15.33,00,EUR,1.00
VENG,S,2022-12-30,09:39:23,1.00,15.43,00,EUR,1.00
VENG,S,2022-12-30,09:39:23,1.00,15.43,00,EUR,1.00
VENG,S,2022-12-30,09:40:29,100.00,15.10,00,EUR,1.00
VENG,S,2022-12-30,09:40:29,100.00,15.10,00,EUR,1.00
VENG,S,2022-12-30,09:41:01,300.00,15.24,00,EUR,1.00
VENG,S,2022-12-30,09:41:01,300.00,15.24,00,EUR,1.00
VENG,S,2022-12-30,09:42:11,198.00,15.06,00,EUR,1.00
VENG,S,2022-12-30,09:42:11,198.00,15.06,00,EUR,1.00
VENG,S,2022-12-30,10:03:03,600.00,16.24,00,EUR,1.00
VENG,S,2022-12-30,10:03:03,600.00,16.24,00,EUR,1.00
VENG,S,2022-12-30,10:03:16,500.00,16.29,00,EUR,1.00
VENG,S,2022-12-30,10:03:16,500.00,16.29,00,EUR,1.00
VENG,S,2022-12-30,10:05:58,1.00,15.76,00,EUR,1.00
VENG,S,2022-12-30,10:05:58,1.00,15.76,00,EUR,1.00
VENG,S,2022-12-30,10:06:00,299.00,15.75,00,EUR,1.00
VENG,S,2022-12-30,10:06:00,299.00,15.75,00,EUR,1.00
VENG,S,2022-12-30,10:06:45,100.00,15.24,00,EUR,1.00
VENG,S,2022-12-30,10:06:45,200.00,15.24,00,EUR,1.00
VENG,S,2022-12-30,10:06:45,100.00,15.24,00,EUR,1.00
VENG,S,2022-12-30,10:06:45,200.00,15.24,00,EUR,1.00
VENG,S,2022-12-30,10:14:29,200.00,15.57,00,EUR,1.00
VENG,S,2022-12-30,10:14:29,200.00,15.57,00,EUR,1.00
VENG,S,2022-12-30,10:27:50,200.00,15.95,00,EUR,1.00
VENG,S,2022-12-30,10:27:50,200.00,15.95,00,EUR,1.00
VENG,S,2022-12-30,10:32:32,300.00,15.57,00,EUR,1.00
VENG,S,2022-12-30,10:32:32,300.00,15.57,00,EUR,1.00
VENG,S,2022-12-30,10:32:35,200.00,15.52,00,EUR,1.00
VENG,S,2022-12-30,10:32:35,200.00,15.52,00,EUR,1.00
VENG,S,2022-12-30,10:53:48,200.00,16.03,00,EUR,1.00
VENG,S,2022-12-30,10:53:48,200.00,16.03,00,EUR,1.00
VENG,S,2022-12-30,11:11:46,300.00,16.03,00,EUR,1.00
VENG,S,2022-12-30,11:11:46,300.00,16.03,00,EUR,1.00
VENG,S,2022-12-30,11:37:14,400.00,15.95,00,EUR,1.00
VENG,S,2022-12-30,11:37:14,400.00,15.95,00,EUR,1.00
VENG,S,2022-12-30,11:41:38,200.00,15.69,00,EUR,1.00
VENG,S,2022-12-30,11:41:38,200.00,15.69,00,EUR,1.00
VENG,S,2022-12-30,11:41:40,300.00,15.69,00,EUR,1.00
VENG,S,2022-12-30,11:41:40,300.00,15.69,00,EUR,1.00
VENG,S,2022-12-30,11:46:53,400.00,15.24,00,EUR,1.00
VENG,S,2022-12-30,11:46:53,400.00,15.24,00,EUR,1.00
VENG,S,2022-12-30,11:50:37,451.00,15.37,00,EUR,1.00
VENG,S,2022-12-30,11:50:37,451.00,15.37,00,EUR,1.00
VENG,S,2022-12-30,11:53:00,400.00,15.47,00,EUR,1.00
VENG,S,2022-12-30,11:53:00,400.00,15.47,00,EUR,1.00
VENG,S,2022-12-30,11:53:57,100.00,15.35,00,EUR,1.00
VENG,S,2022-12-30,11:53:57,100.00,15.35,00,EUR,1.00
VENG,S,2022-12-30,11:56:16,200.00,15.92,00,EUR,1.00
VENG,S,2022-12-30,11:56:16,200.00,15.92,00,EUR,1.00
VENG,S,2022-12-30,11:58:35,90.00,15.62,00,EUR,1.00
VENG,S,2022-12-30,11:58:35,90.00,15.62,00,EUR,1.00
VENG,S,2022-12-30,11:58:38,10.00,15.57,00,EUR,1.00
VENG,S,2022-12-30,11:58:38,10.00,15.57,00,EUR,1.00
VENG,S,2022-12-30,12:45:04,49.00,15.34,00,EUR,1.00
VENG,S,2022-12-30,12:45:04,49.00,15.34,00,EUR,1.00
VENG,S,2022-12-30,13:16:23,300.00,14.91,00,EUR,1.00
VENG,S,2022-12-30,13:16:23,300.00,14.91,00,EUR,1.00
VENG,S,2022-12-30,15:36:11,500.00,15.34,00,EUR,1.00
VENG,S,2022-12-30,15:36:11,500.00,15.34,00,EUR,1.00
