instrument,buysell,datum,čas,količina,cena,tip instrumenta,valuta instrumenta,multiplikator
ESH9 P2100,B,2018-12-31,09:35:13,1.00,12.45,01,USD,50.00
FISVn,S,2018-08-15,13:30:06,67.00,69.45,02,USD,1.00
LOH9 C5500,B,2018-12-31,09:35:08,1.00,0.64,01,USD,1000.00
