instrument,buysell,datum,čas,količina,cena,tip instrumenta,valuta instrumenta,multiplikator
AXRP,S,2021-09-23,09:41:31,38.00,25.69,00,USD,1.00
AXRP,S,2021-10-20,04:19:56,30.00,28.74,00,USD,1.00
AXRP,S,2021-10-22,09:10:09,6.00,28.86,00,USD,1.00
AXRP,S,2021-10-22,09:11:41,5.00,28.80,00,USD,1.00
CBU0,B,2021-03-16,04:01:11,8.00,134.29,00,USD,1.00
CSGOLz,B,2021-09-23,09:50:37,8.00,144.26,00,USD,1.00
DBX,B,2020-12-23,09:38:35,49.31,20.38,00,USD,1.00
DBX,B,2020-12-23,09:39:28,16.00,20.34,00,USD,1.00
DTLA,B,2021-03-16,04:00:29,412.00,5.15,00,USD,1.00
FNMA,B,2020-12-14,10:51:01,430.11,2.29,00,USD,1.00
FTCV 21JAN22 10.0 C,B,2021-12-21,11:57:17,10.00,0.13,03,USD,1.00
GBTC,B,2021-06-15,10:06:43,36.00,27.47,00,USD,1.00
IQ,B,2021-04-19,10:55:41,12.00,12.46,00,USD,1.00
LTCH,B,2021-10-22,09:31:05,100.00,8.47,00,USD,1.00
MAC,B,2020-11-27,09:30:45,110.45,9.23,00,USD,1.00
NET,B,2021-10-22,09:39:55,7.00,157.39,00,USD,1.00
RUSHA,B,2020-11-17,09:53:35,31.00,31.14,00,USD,1.00
SMCI,B,2021-10-22,09:51:48,4.00,30.64,00,USD,1.00
SMCI,B,2021-10-22,09:55:30,26.00,30.70,00,USD,1.00
TLT 31DEC21 151.0 C,S,2021-12-21,09:41:37,2.00,0.49,03,USD,1.00
TSLA,B,2021-10-22,09:30:00,1.00,769.99,00,USD,1.00
TWTR,B,2021-02-10,12:15:07,19.00,52.96,00,USD,1.00
VUAA,B,2021-06-15,10:04:00,34.00,63.88,00,USD,1.00
