instrument,buysell,datum,čas,količina,cena,tip instrumenta,valuta instrumenta,multiplikator
AXRP,B,2022-03-02,03:47:49,434.00,20.92,00,USD,1.00
AXRP,B,2022-03-08,09:44:38,5.00,20.02,00,USD,1.00
AXRPUSD,B,2022-03-31,04:14:48,25.00,23.47,00,USD,1.00
BYND,B,2022-01-05,14:21:27,20.00,53.01,00,USD,1.00
CBU0,B,2022-03-31,04:13:24,101.00,137.38,00,USD,1.00
COIN 17JAN25 100 C,B,2022-11-30,10:47:37,1.00,10.74,03,USD,1.00
CSGOLz,B,2022-03-31,04:07:38,27.00,167.66,00,USD,1.00
DBX,B,2020-12-23,09:38:35,49.31,16.75,00,USD,1.00
DBX,B,2020-12-23,09:39:28,16.00,16.72,00,USD,1.00
DTLA,B,2022-03-31,04:14:08,9800.00,5.42,00,USD,1.00
FNMA,B,2020-12-14,10:51:01,430.11,1.88,00,USD,1.00
GBTC,B,2022-01-03,09:57:03,5.00,30.74,00,USD,1.00
GBTC,B,2022-01-25,09:31:36,8.00,22.60,00,USD,1.00
GBTC,B,2022-07-01,08:00:00,20.00,11.51,00,USD,1.00
GLD 01JUL22 177 C,B,2022-07-01,16:20:00,1.00,0.00,03,USD,1.00
GLD 01JUL22 177.0 C,S,2022-06-07,15:11:00,1.00,1.03,03,USD,1.00
IQ,B,2021-04-19,10:55:41,12.00,10.35,00,USD,1.00
LTCH,B,2021-10-22,09:31:05,100.00,7.28,00,USD,1.00
MAC,B,2020-11-27,09:30:45,110.45,7.74,00,USD,1.00
META,B,2022-12-29,09:49:34,12.00,110.97,00,USD,1.00
MSTR,B,2022-09-13,09:30:02,1.00,237.69,00,USD,1.00
NET,B,2021-10-22,09:39:55,7.00,135.33,00,USD,1.00
NFLX,B,2022-12-12,10:23:04,5.00,297.97,00,USD,1.00
SMCI,B,2022-11-28,10:49:19,30.00,90.00,00,USD,1.00
TLT 01JUL22 119 C,B,2022-07-01,16:20:00,1.00,0.00,03,USD,1.00
TLT 01JUL22 119.0 C,S,2022-06-07,15:12:03,1.00,0.84,03,USD,1.00
TLT 06JAN23 103 C,S,2022-12-30,11:51:20,10.00,0.22,03,USD,1.00
TLT 06JAN23 107 C,B,2022-12-30,11:51:20,10.00,0.02,03,USD,1.00
TLT 17JAN25 60 P,B,2022-12-27,14:05:05,3.00,0.92,03,USD,1.00
TLT 17JAN25 80 P,S,2022-12-27,14:05:05,3.00,2.89,03,USD,1.00
TLT 17JAN25 80 P,S,2022-12-30,12:04:25,3.00,3.17,03,USD,1.00
TLT 19JAN24 100 C,B,2022-12-12,10:34:37,1.00,14.06,03,USD,1.00
TLT 20JAN23 160.0 C,B,2022-03-15,11:31:15,2.00,1.78,03,USD,1.00
TLT 30DEC22 90 C,B,2022-12-08,10:01:35,1.00,18.97,03,USD,1.00
TSLA,B,2021-10-22,09:30:00,1.00,662.07,00,USD,1.00
TWTR,B,2021-02-10,12:15:07,19.00,43.67,00,USD,1.00
TWTR,B,2022-04-11,09:30:06,7.00,41.99,00,USD,1.00
TWTR,B,2022-07-11,15:34:25,50.00,32.68,00,USD,1.00
VUAA,B,2022-03-31,05:04:05,358.00,76.23,00,USD,1.00
